<svg width="18" height="18" viewBox="0 0 18 18" fill="none" xmlns="http://www.w3.org/2000/svg">
<g id="Icon/Outline/person">
<path id="Mask" fill-rule="evenodd" clip-rule="evenodd" d="M10.5 5.25C10.5 4.42275 9.82725 3.75 9 3.75C8.17275 3.75 7.5 4.42275 7.5 5.25C7.5 6.07725 8.17275 6.75 9 6.75C9.82725 6.75 10.5 6.07725 10.5 5.25ZM12 5.25C12 6.9045 10.6545 8.25 9 8.25C7.3455 8.25 6 6.9045 6 5.25C6 3.5955 7.3455 2.25 9 2.25C10.6545 2.25 12 3.5955 12 5.25ZM3.75 15C3.75 12.105 6.10575 9.75 9 9.75C11.8942 9.75 14.25 12.105 14.25 15C14.25 15.414 13.9148 15.75 13.5 15.75C13.0852 15.75 12.75 15.414 12.75 15C12.75 12.9323 11.0677 11.25 9 11.25C6.93225 11.25 5.25 12.9323 5.25 15C5.25 15.414 4.91475 15.75 4.5 15.75C4.08525 15.75 3.75 15.414 3.75 15Z" fill="#24292C"/>
</g>
</svg>

